{
  "@context": {
    "@base": "http://data.pdok.nl/bag/",
    "bag": "http://bag.kadaster.nl/def#",
    "rdfs": "http://www.w3.org/2000/01/rdf-schema#",
    "ogcgs": "http://www.opengis.net/ont/geosparql#",
    "_embedded": "@graph",
    "results": "@graph",
    "identificatie": "rdfs:label",
    "status": "bag:status",
    "woonplaats": "bag:woonplaatsnaam",
    "openbare_ruimte": "bag:gelegenAan",
    "huisnummer": "bag:huisnummer",
    "huisletter": "bag:huisletter",
    "toevoeging": "bag:huisnummertoevoeging",
    "postcode": "bag:postcode",
    "oppervlakte": "bag:oppervlakte",
    "gebruiksdoel": "bag:gebruiksdoel",
    "bouwjaar": "bag:bouwjaar",
    "geometrie": "ogcgs:hasGeometry",
    "wkt": { "@id" : "ogcgs:asWKT", "@type": "http://www.opengis.net/ont/geosparql#wktLiteral" }
  },
  "@x-context": {
    "woonplaats": {
      "@id": "http://data.pdok.nl/bag/woonplaats/{identificatie}",
      "@type": "bag:Woonplaats"
    },
    "ligplaats": {
      "@id": "http://data.pdok.nl/bag/ligplaats/{identificatie}",
      "@type": "bag:Ligplaats"
    }
  }
}
